{
	"env": {
		"AWS_ACCESS_KEY_ID": "AKIAJC222K4XCZOZAS5A",
		"AWS_PROFILE": "event-dynamic",
		"AWS_SECRET_ACCESS_KEY": "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",
		"ED_CLIENT_ID": "5",
		"ED_DB_URI": "jdbc:postgresql://prod.cgyrgmq124op.us-east-1.rds.amazonaws.com:5432/prod?user=EDMaster&password=Event2019Dynamic&ApplicationName=EDFulfillmentMets",
		"ED_ENV": "prod",
		"ED_FULFILLMENT_PORT": "2552",
		"LOG_FORMAT": "TSVLogFormatter",
		"LOG_LEVEL": "INFO"
	},
	"labels": {
		"HAPROXY_GROUP": "external",
		"HAPROXY_0_VHOST": "mets-fulfillment.eventdynamic.com"
	},
	"id": "/prod/fulfillment/mets",
	"backoffFactor": 1.15,
	"backoffSeconds": 1,
	"container": {
		"portMappings": [{
			"containerPort": 2552,
			"hostPort": 0,
			"protocol": "tcp",
			"servicePort": 10114,
			"name": "fulfillment"
		}],
		"type": "DOCKER",
		"volumes": [{
			"containerPath": "/app/logs",
			"hostPath": "/mnt/event-dynamic/logs/production",
			"mode": "RW"
		}],
		"docker": {
			"image": "dialexa/ed-ticket-fulfillment:prod",
			"forcePullImage": true,
			"privileged": false,
			"parameters": []
		}
	},
	"cpus": 1,
	"disk": 0,
	"fetch": [{
		"uri": "https://s3.amazonaws.com/event-dynamic-files/docker.tar.gz",
		"extract": true,
		"executable": false,
		"cache": false
	}],
	"healthChecks": [{
		"gracePeriodSeconds": 300,
		"intervalSeconds": 60,
		"maxConsecutiveFailures": 3,
		"portIndex": 0,
		"timeoutSeconds": 20,
		"delaySeconds": 15,
		"protocol": "MESOS_HTTP",
		"path": "/health",
		"ipProtocol": "IPv4"
	}],
	"instances": 1,
	"maxLaunchDelaySeconds": 3600,
	"mem": 2048,
	"gpus": 0,
	"networks": [{
		"mode": "container/bridge"
	}],
	"requirePorts": false,
	"upgradeStrategy": {
		"maximumOverCapacity": 1,
		"minimumHealthCapacity": 1
	},
	"killSelection": "YOUNGEST_FIRST",
	"unreachableStrategy": {
		"inactiveAfterSeconds": 0,
		"expungeAfterSeconds": 0
	},
	"constraints": []
}
