integrationSeatId,integrationEventId,priceScaleId,listedPrice,isHeld
734051,9201,2295,180,false
734051,9171,2295,180,false
734051,9169,2295,180,false
734051,9167,2295,180,false
734051,9165,2295,180,false
734051,9196,2295,180,false
734051,9160,2295,180,false
734051,9159,2295,180,false
734051,9158,2295,180,false
734051,9157,2295,180,false
