{
	"id": "/qa/ed-web",
	"instances": 1,
	"cpus": 0.1,
	"mem": 128,
	"constraints": [],
	"container": {
		"type": "DOCKER",
		"volumes": [],
		"docker": {
			"image": "dialexa/ed-web:qa",
			"forcePullImage": true
		},
		"portMappings": [{
			"containerPort": 80,
			"hostPort": 0,
			"protocol": "tcp",
			"servicePort": 10022
		}]
	},
	"requirePorts": false,
	"networks": [{
		"mode": "container/bridge"
	}],
	"fetch": [{
		"uri": "https://s3.amazonaws.com/event-dynamic-files/docker.tar.gz"
	}],
	"labels": {
		"HAPROXY_GROUP": "external",
		"HAPROXY_0_VHOST": "qa.eventdynamic.com"
	}
}
