{
	"id": "prod.ticket-pricing.nycfc",
	"description": "Predict ticket prices for NYCFC using ML model",
	"labels": {},
	"run": {
		"cpus": 1,
		"mem": 4096,
		"disk": 0,
		"env": {
			"AWS_ACCESS_KEY_ID": "AKIAJC222K4XCZOZAS5A",
			"AWS_PROFILE": "event-dynamic",
			"AWS_SECRET_ACCESS_KEY": "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",
			"ED_CLIENT_ID": "6",
			"ED_DB_URI": "jdbc:postgresql://prod.cgyrgmq124op.us-east-1.rds.amazonaws.com:5432/prod?user=EDMaster&password=Event2019Dynamic&ApplicationName=EDTicketPricingNYCFC",
			"ED_ENV": "prod",
			"ED_FULFILLMENT_PORT": "2552",
			"ED_MODEL_SERVER_URL": "https://app-model.eventdynamic.com",
			"LOG_FORMAT": "TSVLogFormatter",
			"LOG_LEVEL": "INFO",
			"MLBAM_BASE_URL": "http://donotpush.com",
			"MLBAM_PRICE_GROUP_ID": "777",
			"MLBAM_SOURCE_ID": "777",
			"MY_SPORTS_FEED_BASE_URL": "https://api.mysportsfeeds.com",
			"MY_SPORTS_FEED_PASSWORD": "rds02200220",
			"MY_SPORTS_FEED_USERNAME": "EventDynamic",
			"OPEN_WEATHER_MAP_APP_ID": "c6726ed58a41fd01e30fbfa6640f18e5",
			"OPEN_WEATHER_MAP_BASE_URL": "http://api.openweathermap.org/data/2.5",
			"PRICING_BATCH_SKYBOX_UPDATE_CHUNK_SIZE": "250"
		},
		"placement": {
			"constraints": []
		},
		"artifacts": [{
			"uri": "https://s3.amazonaws.com/event-dynamic-files/docker.tar.gz",
			"extract": true,
			"executable": false,
			"cache": false
		}],
		"maxLaunchDelay": 3600,
		"docker": {
			"image": "dialexa/ed-ticket-pricing:prod",
			"forcePullImage": true,
			"privileged": false,
			"parameters": []
		},
		"volumes": [{
			"containerPath": "/app/logs",
			"hostPath": "/mnt/event-dynamic/logs/production",
			"mode": "RW"
		}],
		"restart": {
			"policy": "NEVER"
		},
		"secrets": {}
	},
	"schedules": [{
		"id": "default",
		"enabled": false,
		"cron": "4-59/10 * * * *",
		"timezone": "America/Chicago",
		"concurrencyPolicy": "ALLOW",
		"startingDeadlineSeconds": 180
	}]
}
