// Jest Snapshot v1, https://goo.gl/fbAQLP

exports[`<Event /> index route should render correctly 1`] = `
<Switch>
  <Route
    component={
      Object {
        "$$typeof": Symbol(react.memo),
        "WrappedComponent": [Function],
        "compare": null,
        "displayName": "Connect(EventInventory)",
        "type": [Function],
      }
    }
    path="/event/:id/inventory"
  />
  <Route
    component={
      Object {
        "$$typeof": Symbol(react.memo),
        "WrappedComponent": [Function],
        "compare": null,
        "displayName": "Connect(EventOverview)",
        "type": [Function],
      }
    }
    path="/event/:id"
  />
  <Redirect
    to="/season"
  />
</Switch>
`;

exports[`<Event /> index route should render correctly when loading is true 1`] = `
<div
  style={
    Object {
      "height": "100%",
      "position": "relative",
      "width": "100%",
    }
  }
>
  <CenteredLoader />
</div>
`;
