// Jest Snapshot v1, https://goo.gl/fbAQLP

exports[`Flex renders correcly 1`] = `
.c0 {
  display: -webkit-box;
  display: -webkit-flex;
  display: -ms-flexbox;
  display: flex;
  -webkit-flex-direction: row;
  -ms-flex-direction: row;
  flex-direction: row;
  -webkit-box-pack: center;
  -webkit-justify-content: center;
  -ms-flex-pack: center;
  justify-content: center;
  -webkit-align-items: center;
  -webkit-box-align: center;
  -ms-flex-align: center;
  align-items: center;
}

<div
  className="c0"
  direction="row"
>
  <span>
    Child
  </span>
</div>
`;

exports[`FlexItem renders correcly 1`] = `
.c0 {
  -webkit-flex: 1;
  -ms-flex: 1;
  flex: 1;
  height: 100px;
  width: 100px;
  -webkit-align-self: center;
  -ms-flex-item-align: center;
  align-self: center;
  margin: 0 auto;
  padding: 12px;
}

<div
  className="c0"
  height="100px"
  width="100px"
>
  <span>
    Child
  </span>
</div>
`;
