{
	"id": "prod.primary-sync.falcons",
	"description": "Sync Falcons ticket prices and transactions from Skybox",
	"labels": {},
	"run": {
		"cpus": 1,
		"mem": 2048,
		"disk": 0,
		"env": {
			"AWS_ACCESS_KEY_ID": "AKIAJC222K4XCZOZAS5A",
			"AWS_PROFILE": "event-dynamic",
			"AWS_SECRET_ACCESS_KEY": "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",
			"ED_CLIENT_ID": "4",
			"ED_DB_URI": "jdbc:postgresql://prod.cgyrgmq124op.us-east-1.rds.amazonaws.com:5432/prod?user=EDMaster&password=Event2019Dynamic&ApplicationName=EDPrimarySyncFalcons",
			"ED_ENV": "prod",
			"ED_FULFILLMENT_PORT": "2552",
			"LOG_FORMAT": "TSVLogFormatter",
			"LOG_LEVEL": "INFO"
		},
		"placement": {
			"constraints": []
		},
		"artifacts": [{
			"uri": "https://s3.amazonaws.com/event-dynamic-files/docker.tar.gz",
			"extract": true,
			"executable": false,
			"cache": false
		}],
		"maxLaunchDelay": 3600,
		"docker": {
			"image": "dialexa/ed-ticket-sync:prod",
			"forcePullImage": true,
			"parameters": []
		},
		"volumes": [{
			"containerPath": "/app/logs",
			"hostPath": "/mnt/event-dynamic/logs/production",
			"mode": "RW"
		}],
		"restart": {
			"policy": "NEVER"
		},
		"secrets": {}
	},
	"schedules": [{
		"id": "default",
		"enabled": false,
		"cron": "20 */1 * * *",
		"timezone": "America/Chicago",
		"concurrencyPolicy": "FORBID",
		"startingDeadlineSeconds": 180
	}]
}
